%YAML 1.1
%TAG !u! tag:unity3d.com,2011:
--- !u!114 &11400000
MonoBehaviour:
  m_ObjectHideFlags: 0
  m_CorrespondingSourceObject: {fileID: 0}
  m_PrefabInstance: {fileID: 0}
  m_PrefabAsset: {fileID: 0}
  m_GameObject: {fileID: 0}
  m_Enabled: 1
  m_EditorHideFlags: 0
  m_Script: {fileID: 11500000, guid: 02faef29003e4c540b62e48e2ba1a510, type: 3}
  m_Name: TestWave1
  m_EditorClassIdentifier: 
  unitPrefab: {fileID: 9052927871969322403, guid: f7a69f3035ac9f348a184ee1a39ea53a, type: 3}
  unitCount: 10
  spawnTime: 6
  unitSpawnTime: 1
